{
    "PresetList": [
        {
            "AlignAVStart": false,
            "AudioCopyMask": [
                "copy:mp3",
                "copy:aac",
                "copy:ac3",
                "copy:dts",
                "copy:dtshd",
                "copy:eac3",
                "copy:flac",
                "copy:truehd"
            ],
            "AudioEncoderFallback": "vorbis",
            "AudioLanguageList": [
                "any"
            ],
            "AudioList": [
                {
                    "AudioBitrate": 160,
                    "AudioCompressionLevel": -1.0,
                    "AudioDitherMethod": "auto",
                    "AudioEncoder": "copy",
                    "AudioMixdown": "7point1",
                    "AudioNormalizeMixLevel": false,
                    "AudioSamplerate": "auto",
                    "AudioTrackDRCSlider": 0.0,
                    "AudioTrackGainSlider": 0.0,
                    "AudioTrackQuality": 5.0,
                    "AudioTrackQualityEnable": false
                }
            ],
            "AudioSecondaryEncoderMode": true,
            "AudioTrackSelectionBehavior": "all",
            "ChapterMarkers": true,
            "ChildrenArray": [],
            "Default": false,
            "FileFormat": "av_mkv",
            "Folder": false,
            "FolderOpen": false,
            "InlineParameterSets": false,
            "MetadataPassthrough": true,
            "Mp4HttpOptimize": true,
            "Mp4iPodCompatible": false,
            "PictureAllowUpscaling": false,
            "PictureAutoCrop": false,
            "PictureBottomCrop": 0,
            "PictureChromaSmoothCustom": "",
            "PictureChromaSmoothPreset": "off",
            "PictureChromaSmoothTune": "none",
            "PictureColorspaceCustom": "",
            "PictureColorspacePreset": "off",
            "PictureCombDetectCustom": "",
            "PictureCombDetectPreset": "off",
            "PictureDARWidth": 1024,
            "PictureDeblockCustom": "strength=strong:thresh=20",
            "PictureDeblockPreset": "off",
            "PictureDeblockTune": "medium",
            "PictureDeinterlaceCustom": "",
            "PictureDeinterlaceFilter": "off",
            "PictureDeinterlacePreset": "",
            "PictureDenoiseCustom": "",
            "PictureDenoiseFilter": "off",
            "PictureDenoisePreset": "",
            "PictureDenoiseTune": "none",
            "PictureDetelecine": "off",
            "PictureDetelecineCustom": "",
            "PictureForceHeight": 0,
            "PictureForceWidth": 0,
            "PictureHeight": 0,
            "PictureItuPAR": false,
            "PictureKeepRatio": true,
            "PictureLeftCrop": 0,
            "PictureLooseCrop": false,
            "PictureModulus": 2,
            "PicturePAR": "auto",
            "PicturePARHeight": 45,
            "PicturePARWidth": 64,
            "PicturePadBottom": 0,
            "PicturePadColor": "black",
            "PicturePadLeft": 0,
            "PicturePadMode": "none",
            "PicturePadRight": 0,
            "PicturePadTop": 0,
            "PictureRightCrop": 0,
            "PictureRotate": "angle=0:hflip=0",
            "PictureSharpenCustom": "",
            "PictureSharpenFilter": "off",
            "PictureSharpenPreset": "",
            "PictureSharpenTune": "",
            "PictureTopCrop": 0,
            "PictureUseMaximumSize": true,
            "PictureWidth": 0,
            "PresetDescription": "Legacy HandBrake 0.10.x H.264 Main Profile preset.",
            "PresetDisabled": false,
            "PresetName": "RF23-mkv-AutoPassVorb-AutoSubtitle-NoCro",
            "SubtitleAddCC": true,
            "SubtitleAddForeignAudioSearch": false,
            "SubtitleAddForeignAudioSubtitle": false,
            "SubtitleBurnBDSub": false,
            "SubtitleBurnBehavior": "none",
            "SubtitleBurnDVDSub": false,
            "SubtitleLanguageList": [
                "any"
            ],
            "SubtitleTrackSelectionBehavior": "all",
            "Type": 1,
            "UsesPictureFilters": true,
            "VideoAvgBitrate": 2500,
            "VideoColorMatrixCodeOverride": 0,
            "VideoEncoder": "x265",
            "VideoFramerate": "auto",
            "VideoFramerateMode": "vfr",
            "VideoGrayScale": false,
            "VideoLevel": "auto",
            "VideoOptionExtra": "",
            "VideoPreset": "medium",
            "VideoProfile": "auto",
            "VideoQSVDecode": false,
            "VideoQualitySlider": 23.0,
            "VideoQualityType": 2,
            "VideoScaler": "swscale",
            "VideoTune": "",
            "VideoTurboTwoPass": false,
            "VideoTwoPass": false,
            "x264Option": "",
            "x264UseAdvancedOptions": false
        }
    ],
    "VersionMajor": 47,
    "VersionMicro": 0,
    "VersionMinor": 0
}